%YAML 1.1
%TAG !u! tag:unity3d.com,2011:
--- !u!74 &7400000
AnimationClip:
  m_ObjectHideFlags: 0
  m_PrefabParentObject: {fileID: 0}
  m_PrefabInternal: {fileID: 0}
  m_Name: Attack
  serializedVersion: 6
  m_Legacy: 0
  m_Compressed: 0
  m_UseHighQualityCurve: 1
  m_RotationCurves: []
  m_CompressedRotationCurves: []
  m_EulerCurves: []
  m_PositionCurves: []
  m_ScaleCurves: []
  m_FloatCurves: []
  m_PPtrCurves:
  - curve:
    - time: 0
      value: {fileID: 21300000, guid: 8f6ae732168f88a4c8060b816195ee53, type: 3}
    - time: 0.083333336
      value: {fileID: 21300000, guid: 255aab5464638fa45b4f1901ef4540ac, type: 3}
    - time: 0.16666667
      value: {fileID: 21300000, guid: 407eea4c0a1ce4c40abb33831d4bdd54, type: 3}
    - time: 0.25
      value: {fileID: 21300000, guid: ba5c457946ea1ba4faf79df3fe818e72, type: 3}
    - time: 0.33333334
      value: {fileID: 21300000, guid: b4c0d1b3d96f27548a7d29a677555521, type: 3}
    - time: 0.41666666
      value: {fileID: 21300000, guid: b10e58043c8cc9f44bfabc2f4cab0538, type: 3}
    - time: 0.5
      value: {fileID: 21300000, guid: e3cd93d2b574ec1419eafaab5f48dc67, type: 3}
    - time: 0.5833333
      value: {fileID: 21300000, guid: 0fdf01637f62bbb42807f6a236731762, type: 3}
    - time: 0.6666667
      value: {fileID: 21300000, guid: 6ce246b02d217ee47af099f8d7d58bdd, type: 3}
    - time: 0.75
      value: {fileID: 21300000, guid: dde78df14aad8564a881a6e38a8e7437, type: 3}
    - time: 0.8333333
      value: {fileID: 21300000, guid: 0e39dd24a890c694083805b714f79769, type: 3}
    - time: 0.9166667
      value: {fileID: 21300000, guid: b55d2aab88810e24ca62a5cb5b10eeaf, type: 3}
    attribute: m_Sprite
    path: 
    classID: 212
    script: {fileID: 0}
  m_SampleRate: 12
  m_WrapMode: 0
  m_Bounds:
    m_Center: {x: 0, y: 0, z: 0}
    m_Extent: {x: 0, y: 0, z: 0}
  m_ClipBindingConstant:
    genericBindings:
    - serializedVersion: 2
      path: 0
      attribute: 0
      script: {fileID: 0}
      typeID: 212
      customType: 23
      isPPtrCurve: 1
    pptrCurveMapping:
    - {fileID: 21300000, guid: 8f6ae732168f88a4c8060b816195ee53, type: 3}
    - {fileID: 21300000, guid: 255aab5464638fa45b4f1901ef4540ac, type: 3}
    - {fileID: 21300000, guid: 407eea4c0a1ce4c40abb33831d4bdd54, type: 3}
    - {fileID: 21300000, guid: ba5c457946ea1ba4faf79df3fe818e72, type: 3}
    - {fileID: 21300000, guid: b4c0d1b3d96f27548a7d29a677555521, type: 3}
    - {fileID: 21300000, guid: b10e58043c8cc9f44bfabc2f4cab0538, type: 3}
    - {fileID: 21300000, guid: e3cd93d2b574ec1419eafaab5f48dc67, type: 3}
    - {fileID: 21300000, guid: 0fdf01637f62bbb42807f6a236731762, type: 3}
    - {fileID: 21300000, guid: 6ce246b02d217ee47af099f8d7d58bdd, type: 3}
    - {fileID: 21300000, guid: dde78df14aad8564a881a6e38a8e7437, type: 3}
    - {fileID: 21300000, guid: 0e39dd24a890c694083805b714f79769, type: 3}
    - {fileID: 21300000, guid: b55d2aab88810e24ca62a5cb5b10eeaf, type: 3}
  m_AnimationClipSettings:
    serializedVersion: 2
    m_AdditiveReferencePoseClip: {fileID: 0}
    m_AdditiveReferencePoseTime: 0
    m_StartTime: 0
    m_StopTime: 1
    m_OrientationOffsetY: 0
    m_Level: 0
    m_CycleOffset: 0
    m_HasAdditiveReferencePose: 0
    m_LoopTime: 1
    m_LoopBlend: 0
    m_LoopBlendOrientation: 0
    m_LoopBlendPositionY: 0
    m_LoopBlendPositionXZ: 0
    m_KeepOriginalOrientation: 0
    m_KeepOriginalPositionY: 1
    m_KeepOriginalPositionXZ: 0
    m_HeightFromFeet: 0
    m_Mirror: 0
  m_EditorCurves: []
  m_EulerEditorCurves: []
  m_HasGenericRootTransform: 0
  m_HasMotionFloatCurves: 0
  m_GenerateMotionCurves: 0
  m_Events: []
